ID,PART,AGE,AGE_RANGE,GENDER,JOB_POSITION,EXP_PRG,EXP_DATAVIZ,YEARS_PRG,YEARS_DATAVIZ,CHAOSS,OPENSHIFT,EXP_SOFTVIS,EXP_VR
1,1st VR Chaoss,29,28-31,Male,Developer,Advanced,Beginner,4-6,<1,None,None,Beginner,Beginner
2,1st SC Chaoss,24,24-27,Male,Degree Student,Advanced,Beginner,7-10,<1,None,None,None,Knowledgeable
3,1st VR Openshift,29,28-31,Male,Developer,Expert,Knowledgeable,7-10,4-6,None,Beginner,Knowledgeable,Beginner
4,1st SC Openshift,46,44-47,Male,PhD Student,Advanced,Knowledgeable,10+,7-10,None,None,None,None
5,1st VR Openshift,25,24-27,Male,Developer,Advanced,Beginner,7-10,<1,None,None,Knowledgeable,Beginner
6,1st SC Chaoss,34,32-35,Male,Developer,Expert,Knowledgeable,10+,4-6,None,None,Beginner,Knowledgeable
7,1st VR Chaoss,27,24-27,Male,Developer,Knowledgeable,Beginner,4-6,1-3,None,None,None,None
8,1st SC Openshift,30,28-31,Male,System architect,Beginner,Advanced,1-3,7-10,None,None,None,Advanced
9,1st VR Openshift,30,28-31,Female,Master Student,Beginner,Beginner,1-3,<1,None,None,None,None
10,1st SC Chaoss,55,52-55,Male,Telecomunications Engineer,Expert,Advanced,10+,7-10,None,None,Knowledgeable,None
11,1st VR Openshift,29,28-31,Female,Telecomunications Engineer,Advanced,Knowledgeable,7-10,1-3,None,None,Beginner,Beginner
12,1st SC Chaoss,32,32-35,Male,Developer,Expert,Knowledgeable,10+,1-3,None,None,Knowledgeable,Knowledgeable
13,1st SC Chaoss,28,28-31,Male,PhD Student,Advanced,Advanced,4-6,4-6,None,None,Knowledgeable,Beginner
14,1st VR Chaoss,26,24-27,Male,Developer,Advanced,Knowledgeable,4-6,1-3,None,None,None,Knowledgeable
15,1st VR Openshift,35,32-35,Male,Consultant,Knowledgeable,Beginner,4-6,1-3,None,None,None,Beginner
16,1st SC Openshift,29,28-31,Male,Degree Student,Knowledgeable,Beginner,1-3,<1,None,None,None,None
17,1st SC Openshift,29,28-31,Male,Developer,Knowledgeable,Knowledgeable,1-3,1-3,None,None,Beginner,Advanced
18,1st VR Chaoss,27,24-27,Male,Consultant,Beginner,Beginner,1-3,1-3,None,None,None,None
19,1st VR Openshift,29,28-31,Male,Developer,Advanced,Beginner,4-6,1-3,None,None,Beginner,Beginner
20,1st SC Chaoss,27,24-27,Male,Developer,Knowledgeable,Knowledgeable,4-6,4-6,None,None,Beginner,None
33,1st VR Chaoss,20,20-23,Male,Degree Student,Knowledgeable,None,1-3,<1,None,None,None,Beginner
34,1st SC Openshift,21,20-23,Female,Degree Student,Knowledgeable,Beginner,4-6,<1,None,None,Beginner,Knowledgeable
31,1st SC Chaoss,25,24-27,Female,Degree Student,Knowledgeable,None,4-6,<1,None,None,None,None
32,1st VR Openshift,22,20-23,Male,Degree Student,Advanced,Beginner,4-6,<1,None,None,Beginner,None
21,1st VR Chaoss,23,20-23,Male,Degree Student,Advanced,Knowledgeable,7-10,4-6,None,None,Knowledgeable,Beginner
22,1st SC Openshift,41,40-43,Male,PhD Student,Knowledgeable,Knowledgeable,10+,4-6,None,None,Beginner,None
23,1st VR Chaoss,27,24-27,Male,Developer,Advanced,Knowledgeable,7-10,4-6,None,None,None,None
24,1st SC Openshift,27,24-27,Male,Developer,Expert,Knowledgeable,7-10,1-3,None,None,Knowledgeable,Advanced
25,1st SC Openshift,29,28-31,Male,PhD Student,Advanced,Knowledgeable,7-10,1-3,None,None,None,Knowledgeable
26,1st VR Chaoss,27,24-27,Male,PhD Student,Advanced,Knowledgeable,7-10,1-3,None,None,None,None
27,1st VR Openshift,27,24-27,Male,Developer,Expert,Knowledgeable,7-10,4-6,None,None,Beginner,Beginner
28,1st SC Chaoss,27,24-27,Male,System architect,Knowledgeable,Advanced,1-3,4-6,None,None,Beginner,Knowledgeable