LIMIT_DATA_DATE,DATE,ID,PART,AGE,GENDER,JOB_POSITION,EXP_PRG,EXP_DATAVIZ,YEARS_PRG,YEARS_DATAVIZ,CHAOSS,OPENSHIFT,EXP_SOFTVIS,EXP_VR,T1.1,,,T1.2,,,T1_diff,T1_time,T2.1,T2.2,T2.3,T2.4,T2_diff,T2_time,T3.1,,,T3.2,,,T3_diff,T3_time,T4.1,,,T4.2,,,T4_diff,T4_time,T5.1,,,T5.2,,,T5_diff,T5_time,S1,S2,S3,C1,C2,Supervisor comments
20/06/2022,20/06/2022,1,1st VR Chaoss,29,Male,Developer,Advanced,Beginner,5,<1,NO,-,Beginner,Beginner,Unknown,Bitergia,Misouri,"Bitergia 186, Misouri 110, Unknown 409",,,Agree,3:01,"42, 9",21 Marzo 2022,"19, 216",2 Mayo 2022,Agree,5:01,Valerio Cosentino,Sean Patrick Goggins,Alberto Pérez García-Plaza,214.6,115.8,382.9,Agree,4:01,chaoss/augur,chaoss/grimoirelab-perceval,chaoss/grimoirelab-elk,chaoss/augur,chaoss/grimoirelab-sortinghat,chaoss/grimoirelab,Disagree,3:40,k----n,Alberto Pérez García-Plaza,Ayush Tamra,NF,,,Disagree,3:09,-,-,-,-,"VR: cuando pasas, el texto aparece cortado por la barra, la letra no es muy grande, el timestamp se lee un poco mal. Bad UX a la hora de acercarse, limitación de cuanto te puedes acercar. Texto de abajo, de izquierda a derecha habría que explicarlo. Colores están bien, se diferencian bien. Entorno comodo, no te sientes perdido. Stop audio boton.","Se equivoco la primera, se fue a repositorio"
20/06/2022,20/06/2022,1,2nd SC Openshift,-,-,-,-,-,-,-,-,NO,-,-,Unknown,Red Hat,Openshift,20980,32020,51,Disagree,2:03,"o 341, c 216",23 Marzo 2022,"o 1333, c 11488",6 Mayo 2022,Disagree,2:43,openshift-cherrypickrobot,bot,David Eads,NF,NF,174.6,Agree,4:03,release,doc,installer,docs,okd,installer,Disagree,2:41,Mike Veazie,Borball Zhai,Deven Phillips,NF,,,Agree,3:07,"Kibana, estoy mas acosumbrado a buscar la información en pantalla con ordenador. Pero es mas facil enfocar con VR.","En VR, me costaba encontrar las secciones al estar todo alrededor y no estoy acostumbrado al movimiento en VR, es mas dificil localizar la ionformación en el espacio, pero mas util si estas acostumbrado a ello.","Screen: mejor comprimido para la pantalla la información, pero los colores no transmiten nada. VR: vas directamente  a lo que te pregutnan por los colores, pero no estoy acostumbrado al espacio.",Disagree, ,
20/06/2022,21/06/2022,2,1st SC Chaoss,24,Male,Student,Advanced,Beginner/Know,7,<1,NO,-,None,Knowledgeable,"Unknown, Bitergia, University of Misouri",,,"Unk 406, 186 biter, 109 misouri",,,Strongly Disagree,1:51,o 42 c 9,24  Marzo 2022,"19 o, 216 c",3 Mayo 2022,Agree,7:13,Valerio Cosentino,Sean Patrick Goggins,Alberto Pérez García-Plaza,214.611,115.709,382.911,Disagree,2:56,chaoss/augur,chaoss/grimoirelab-perceval,chaoss/grimoirelab-elk,chaoss/augur,chaoss/grimoirelab-sortinghat,chaoss/grimoirelab,Don't Know,5:35,k----n,Alberto Pérez García-Plaza,Ayush Tamra,NF,,,Disagree,4:01,-,-,-,-,-,"Equivoco tarea repositorios, no miro bien"
20/06/2022,21/06/2022,2,2nd VR Openshift,-,-,-,-,-,-,-,-,NO,-,-,Unknown,Red Hat,Openshift,31924,20936,51,Strongly Disagree,2:01,"o 340, c 211",23 Marzo 2022,"o 1330, 11313 c",20 Mayo 2022,Disagree,2:50,openshift-cherrypickrobot,bot,dependabot-bot,NF,NF,NF,Strongly Disagree,3:15,release,doc,installer,docs,okd,installer,Agree,4:05,Mike Veazie,Borball Zhai,Deven Phillips,NF,,,Strongly Disagree,2:41,"En VR, mas facil por que he visto mas coherencia en la relación entre los issues y PR, la disposición. Y no habia duplicidad para el filtro de fechas.","En PC, navegando de una pestañañ a otra pienso que se pierde mas tiempo. ","PC: EN PC poder ver mas graficas de un solo vistazo, costaba menos localizar la grafica, desventaja tener varias pestañas. VR: Util las graficas mas faciles e interpretar y como desventaja la miniaturización complica la iteraccion y lectura de datos.",Strongly Disagree,"Curva de aprendizaje es plana, tanto en escritorio como en VR.",
20/06/2022,21/06/2022,3,1st VR Openshift,29,Male,Developer,Expert,Knowledgeable,10,4,-,Beginner,Knowledgeable,Beginner,Unknown,Red Hat,Openshift,31924,20936,51,Strongly Disagree,2:33,"339, 209",23 Marzo 2022,"o 1328, c 11284",20 Mayo 2022,Disagree,3:54,openshift-cherrypickrobot,bot,David Eads,NF,NF,174.6,Disagree,3:26,release,docs,installer,docs,okd,installer,Disagree,3:20,Mike Veazie,Borball Zhai,Deven Phillips,NF,,,Disagree,3:11,-,-,-,-,-,
20/06/2022,21/06/2022,3,2nd SC Chaoss,-,-,-,-,-,-,-,NO,-,-,-,Unknown,Bitergia,Misouri,406,185,109,Strongly Disagree,1:12,"c 9, o 42",24  Marzo 2022,"19 o, 216 c",3 Mayo 2022,Disagree,3:44,Valerio Cosentino,Sean Patrick Goggins,Alberto Pérez García-Plaza,214.635,116.004,382.947,Strongly Disagree,1:57,chaoss/augur,chaoss/grimoirelab-perceval,chaoss/grimoirelab-elk,chaoss/augur,chaoss/grimoirelab-sortinghat,chaoss/grimoirelab,Strongly Disagree,2:18,k----n,Alberto Pérez García-Plaza,Ayush Tamra,NF,,,Disagree,2:23,"En PC, estoy mas hecho a ello, los nombres son mas sencillos, mas facil de indentificar","En VR, la snesacion es mayor","VR esta bien por que estan separados en paredes y saltas rapido de un lado a otro y carga todo a la vez, en PC haylimitacion de espacio y tarda en cargar. Peor en PC es mas rapido, los tooltips en PC son mejores. En VR las barras a veces se cruzan.",Disagree,"Dividiria mejor los dashboards en PC, en VR la interfaz, mejoraría los tooltips, las barras se chocaban con el tooltip.",
20/06/2022,28/06/2022,4,1st SC Openshift,46,Male,Teacher - PhD Student,Advanced,Knowledgeable,10+,7-10,-,NO,None,None,Unknown,Red Hat,Openshift,20000,31243,0,Strongly Disagree,3:39,"c 177, o 310",30 Marzo 2022,"1290 o, c 10212",22-06-05,Disagree,6:10,openshift-cherrypickrobot,bot,David Eads,404304 - FAIL,NF,175.125,Disagree,5:50,docs,release,console,docs,okd,installer,Strongly Disagree,2:31,Mike Veazie,Borball Zhai,Deven Phillips,NF,,,Strongly Disagree,2:30,-,-,-,-,-,-
20/06/2022,28/06/2022,4,2nd VR Chaoss,-,-,-,-,-,-,-,NO,-,-,-,Unkown,Bitergia,Misouri,398,181,108,Strongly Disagree,2:06,"c 7, o 36",2022-03-31,"19 o, 201 c",2022-05-02,Strongly Disagree,2:05,Valerio Cosentino,Sean Patrick Goggins,Alberto Pérez García-Plaza,215.83,117.21,384.7,Strongly Disagree,4:48,chaoss/augur,chaoss/grimoirelab-perceval,chaoss/grimoirelab-elk,chaoss/augur,chaoss/grimoirelab-sortinghat,chaoss/grimoirelab,Agree,4:30,k----n,Alberto Pérez García-Plaza,Sean Patrick gogins,NF pero Sean 5.22,,,Disagree,3:25,"EN PC, por que estoy mas acosumbtrado a ese entorno","En PC, por que fue el primero, en el segundo ya sabes como son las graficas","PC: Negativo el tamaño, son pequeñas, cuando el rango de tiempo es muy amplio hay demasiada información, positivo que puedes filtrar. VR: Positivo la distirbución de las graficas, están todas ahi y llegar a ellas fácilmente, Negativo no poder ver bien las etiquetas, los ejes no son claros.",Disagree,"Poner nombres grandes en VR mejoraria la experiencia. La inmersion te aisla del mundo entonces te centras en lo que tienes alrededor, te centras en el análisis de datos, por que no tienes otra distracción, no tienes interrupciones.",
20/06/2022,28/06/2022,5,1st VR Openshift,25,Male,Developer,Advanced,Beginner,5-7,<1,-,NO,Knowledgeable,Beginner,Unknown,Red Hat,Openshift,20k,31k,49,Disagree,3:03,"c170, 0 300",7 Mayo 2022,"1217 o , 10652 c",7 Mayo 2022,Agree,5:10,openshift-cherrypickrobot,bot,David Eads,nf,NF,175.23,Disagree,4:01,release,docs,installer,docs,okd,installer,Agree,4:12,Mike Veazie,Borball Zhai,Deven Phillips,NF,,,Strongly Disagree,3:21,-,-,-,-,-,-
20/06/2022,28/06/2022,5,2nd SC Chaoss,-,-,-,-,-,-,-,NO,-,-,-,Unkown,Bitergia,Misouri,398,181,107,Strongly Disagree,2:48,"c 7, o 36",30 Marzo 2022,"19 o, 201 c",2 Mayo 2022,Disagree,2:38,Valerio Cosentino,Sean Patrick Goggins,Alberto Pérez García-Plaza,210,110,380,Strongly Disagree,2:12,chaoss/augur,chaoss/grimoirelab-perceval,chaoss/grimoirelab-elk,chaoss/augur,chaoss/grimoirelab-sortinghat,chaoss/grimoirelab,Strongly Disagree,2:54,k----n,Alberto Pérez García-Plaza,Sean Patrick gogins,NF Sean si 5.22,,,Strongly Disagree,2:43,"En PC, me es más facil usar un ratón y lo uso a diario","En PC, aparte de que me sabia las preguntas pues iba mas rapido por la costumbre",PC negativo el moverse entre pestañas pero en positivo que es mas facil de usar y entender. En VR lo negativo es que es algo que hay que acostumbrarse antes pero positivo que tienes mucho mas espacio para mostrar más,Don't Know,Haría otro tipo de graficas en vez de graficas de barras,
20/06/2022,28/06/2022,6,1st SC Chaoss,34,Male,Developer,Expert,Knowledgeable,10+,5,-,NO,Beginner,Knowledgeable,Unkown,Bitergia,Misouri,415,187,108,Disagree,3:06,"19o, 35c",2022-04-06,"200c, 38o",2022-05-02,Agree,4:32,Valerio Cosentino,Sean Patrick Goggins,Alberto Pérez García-Plaza,217,118,386,Disagree,2:51,chaoss/augur,chaoss/grimoirelab-perceval,chaoss/grimoirelab-elk,chaoss/augur,chaoss/grimoirelab-sortinghat,-chaoss/grimoirelab,Don't Know,3:05,k----n,Sean Patrick gogins,siwen,nf,40,nf,Don't Know,4:21,-,-,-,-,-,-
20/06/2022,28/06/2022,6,2nd VR Openshift,-,-,-,-,-,-,-,NO,-,-,-,Unknown,Red Hat,Openshift,21k,32k,50,Strongly Disagree,2:01,"330, 200c",2022-04-08,"1300, 11kc",2022-05-14,Disagree,2:59,openshift-cherrypickrobot,bot,David Eads,NF,NF,166.43,Disagree,2:01,release,docs,installer,docs,okd,installer,Disagree,2:31,Diego Santamaria,Mike Veazie,Miguel Angel,NF,NF,NF,Disagree,2:51,"EN VR, tienes la información mas junta","En VR, he tardado menos por que me sabia las preguntas y sabia donde mirar",PC es mas de uso comun pero tienes demasiado todo junto. VR es mejor por que tienes la información bien indexada pero la interfaz y los fps son mejorables,Disagree,-,-
29/06/2022,29/06/2022,7,1st VR Chaoss,27,Male,Developer,Knowledgeable,Beginner,4,1-3,NO,-,None,None,Unkown,Bitergia,Misouri,418,187,110,Strongly Disagree,2:42,"c 40, o 15",31 Marzo 2022,"o 34, 206 c",2022-05-02,Agree,7:47,Valerio Cosentino,Sean Patrick Goggins,Alberto Pérez García-Plaza,216,"117,42",385.6,Disagree,3:34,chaoss/augur,chaoss/grimoirelab-perceval,chaoss/grimoirelab-elk,chaoss/augur,chaoss/grimoirelab-sortinghat,-chaoss/grimoirelab,Disagree,3:35,k----n,Siwen,Sean Patrick gogins,Sean 37 NF,,,Disagree,2:52,-,-,-,-,-,-
29/06/2022,29/06/2022,7,2nd SC Openshift,-,-,-,-,-,-,-,-,NO,-,-,Unknown,Red Hat,Openshift,21017,32317,0,Strongly Disagree,2:38,"335, 208",31 Marzo 2022,"12019 c, 1347 c",14 Mayo 2022,Disagree,4:51,openshift-cherrypickrobot,bot,David Eads,NF,NF,175.14,Disagree,4:32,release,docs,installer,docs,okd,installer,Disagree,3:45,Diego Santamaria,Mike Veazie,Deven Phillips,NF,,,Disagree,2:32,"No lo sé, en VR las graficas mas juntas es mejor","En PC, por la costumbre","VR: Positivo poner más graficas en espacios ilimitados, mirando grafoicas del tirón, girando, negativo que marea. EN PC: Positivo que lo uso cada dia, y negativo el espacio limitado, necesitas 2 o tres pantallas para trabajar agusto",Disagree,-,Le ha costado al principio confundia las graficas
29/06/2022,29/06/2022,8,1st SC Openshift,30,Male,System architect,Beginner,Advanced,2,7,-,NO,None,Advanced,Unknown,Red Hat,Openshift,21k,32382,0,Strongly Disagree,1:32,"208 c, 365 o",31 Marzo 2022,"12019 c, 1347 c",31 Marzo 2022,Disagree,2:23,openshift-cherrypickrobot,bot,David Eads,NF,NF,NF,Don't Know,2:33,release,docs,installer,docs,okd,installer,Don't Know,2:53,Diego Santamaria,Mike Veazie,Deven Phillips,NF,,,Agree,4:28,-,-,-,-,-,-
29/06/2022,29/06/2022,8,2nd VR Chaoss,-,-,-,-,-,-,-,NO,-,-,-,Unkown,Bitergia,Misouri,418,187,110,Strongly Disagree,2:48,"c 40, o 15",2022-03-31,"o 34, 206 c",2022-05-02,Disagree,4:18,Valerio Cosentino,Sean Patrick Goggins,Alberto Pérez García-Plaza,216,"117,42",385.6,Disagree,2:37,chaoss/augur,chaoss/grimoirelab-perceval,chaoss/grimoirelab-elk,chaoss/augur,chaoss/grimoirelab-sortinghat,-chaoss/grimoirelab,Disagree,2:16,k----n,Siwen,Sean Patrick gogins,Sean si pero resto NF	,,,Disagree,2:12,En PC por que trabajo con el y estoy acostumbrado,En PC por la costumbre,"En VR con mas tiempo te adaptaria mejor, almacenar y concentrar mas información, Negativo dificil de adaptarse. En PC: positivo estas mas hecho a ello y negativo para grandes cantidades de informacion es mas complicado, moverse entre pestañas, etc",Disagree,-,-
29/06/2022,29/06/2022,9,1st VR Openshift,30,Female,Master Student,Beginner,Beginner,2,<1,.,NO,None,None,Unknown,Red Hat,Openshift,21k,32k,51,Disagree,5:02,"200c, 360 o",31 Marzo 2022,"12k o, 1k c",31 Marzo 2022,Disagree,5:16,openshift-cherrypickrobot,bot,Other,NF,NF,NF,Agree,3:10,release,docs,installer,docs,okd,installer,Disagree,3:45,Diego Santamaria,Mike Veazie,Deven Phillips,NF,,,Disagree,4:10,-,-,-,-,-,-
29/06/2022,29/06/2022,9,2nd SC Chaoss,-,-,-,-,-,-,-,NO,-,-,-,Unkown,Bitergia,Misouri,418,187,110,Disagree,3:10,"c 40, o 15",31 Marzo 2022,o 34 206 c,2 Mayo 2022,Strongly Disagree,2:54,Valerio Cosentino,Sean Patrick Goggins,Alberto Pérez García-Plaza,216,"117,42",385.6,Disagree,1:54,chaoss/cereslib,chaoss/grimoirelab-perceval,chaoss/grimoirelab-sortginhat,chaoss/augur,chaoss/grimoirelab-sortinghat,-chaoss/grimoirelab,Strongly Disagree,2:15,k----n,Siwen,Sean Patrick gogins,Sean si pero resto NF	,,,Disagree,4:21,"En PC, se como manejar mejor el raton, mas intuituivo",En PC por lo mismo,"VR: ver mejor las graficas sin tener que moverte, pero señalar a veces es dificil. PC es complicado ver algunos datos por que lia tenerlo todo junto, pero es más facil de señalar",Don't Know,-,-
29/06/2022,29/06/2022,10,1st SC Chaoss,55,Male,Engineer,Expert,Advanced,10+,7-10,NO,-,Knowledgeable,None,Unkown,Bitergia,Misouri,418,187,110,Strongly Disagree,1:59,"c 40, o 15",31 Marzo 2022,o 34 206 c,2 Mayo 2022,Strongly Disagree,2:34,Valerio Cosentino,Sean Patrick Goggins,Alberto Pérez García-Plaza,216,"117,42",385.6,Strongly Disagree,1:32,chaoss/augur,chaoss/grimoirelab-perceval,chaoss/grimoirelab-elk,chaoss/augur,chaoss/grimoirelab-sortinghat,-chaoss/grimoirelab,Strongly Disagree,2:16,k----n,Siwen,Sean Patrick gogins,Sean si pero resto NF	,,,Strongly Disagree,3:43,-,-,-,-,-,-
29/06/2022,29/06/2022,10,2nd VR Openshift,-,-,-,-,-,-,-,-,NO,.,.,Unknown,Red Hat,Openshift,21k,32k,51,Don't Know,3:12,"200c, 360 o",31 Marzo 2022,"12k o, 1k c",31 Marzo 2022,Disagree,2:20,openshift-cherrypickrobot,bot,David Eads,NF,NF,175.14,Disagree,2:23,release,docs,installer,docs,okd,installer,Disagree,2:10,Diego Santamaria,Mike Veazie,Deven Phillips,NF,,,Strongly Disagree,3:12,"En PC, analizo datos normalmente en Grafan","En PC por lo mismo, se ver graficas","VR: Me gusta la idea de tener en un entorno aislado varias graficas y poder moverme alrdedor de ellas pero en contra es el dispositivo, no es muy comodo tras pasar un rato mirando",Disagree,Si en VR se pudieran estar mas de una persona viendo las grafoicas y comentando podría ser de mucha utilidad,
29/06/2022,30/06/2022,11,1st VR Openshift,29,Female,Telecomunications Engineer,Advanced,Knowledgeable,7,1-3,NO,-,Beginner,Beginner,Unknown,Red Hat,Openshift,31924,20936,51,Strongly Disagree,2:33,"339, 209",23 Marzo 2022,"o 1328, c 11284",20 Mayo 2022,Disagree,3:40,openshift-cherrypickrobot,bot,David Eads,NF,NF,174.6,Don't Know,3:01,release,docs,installer,docs,okd,installer,Disagree,3:20,Mike Veazie,Borball Zhai,Deven Phillips,NF,NF,NF,Disagree,3:21,-,-,-,-,-,-
29/06/2022,30/06/2022,11,2nd SC Chaoss,-,-,-,-,-,-,-,-,NO,-,-,Unknown,Bitergia,Misouri,406,185,109,Strongly Disagree,1:12,"c 9, o 42",24  Marzo 2022,"19 o, 216 c",3 Mayo 2022,Disagree,3:12,Valerio Cosentino,Sean Patrick Goggins,Alberto Pérez García-Plaza,214.635,116.004,382.947,Disagree,1:59,chaoss/augur,chaoss/grimoirelab-perceval,chaoss/grimoirelab-elk,chaoss/augur,chaoss/grimoirelab-sortinghat,chaoss/grimoirelab,Disagree,2:18,k----n,Alberto Pérez García-Plaza,Ayush Tamra,NF,NF,NF,Disagree,2:40,"EN PC, mas facil de mirar los datos",EN PC he tardado menos creo por que entre que me sabia las preguntas y sabia donde mirar he ido mas rapida,PC tienes que moverte entre dahsboards lo que dificulta la correlacion de datos pero la gente sabe usarlo sin tanto training como VR. en VR tienes todo junto pero necesitas un training previo.,Disagree,Mejora de los carteles en VR y los fps cuando cambian los datos.,-
29/06/2022,30/06/2022,12,1st SC Chaoss,32,Male,Developer,Expert,Knowledgeable,10+,3,NO,-,Knowledgeable,Knowledgeable,Unkown,Bitergia,Misouri,418,187,110,Disagree,2:30,"c40, o15",2022-04-05,"34o,206c",2022-05-02,Disagree,3:20,Valerio Cosentino,Sean Patrick Goggins,Alberto Pérez García-Plaza,216,"117,42",385.6,Disagree,2:43,chaoss/augur,chaoss/grimoirelab-perceval,chaoss/grimoirelab-elk,chaoss/augur,chaoss/grimoirelab-sortinghat,-chaoss/grimoirelab,Disagree,2:49,k----n,Siwen,Sean Patrick gogins,Sean si pero resto NF	,,,Disagree,2:18,-,-,-,-,-,-
29/06/2022,30/06/2022,12,2nd VR Openshift,-,-,-,-,-,-,-,-,NO,-,-,Unknown,Red Hat,Openshift,21k,32k,51,Strongly Disagree,2:10,"200c, 360 o",2022-04-14,"12k o, 1k c",2022-05-03,Disagree,2:12,openshift-cherrypickrobot,bot,David Eads,NF,NF,175.14,Strongly Disagree,2:09,release,docs,installer,docs,okd,installer,Strongly Disagree,1:49,Diego Santamaria,Mike Veazie,Deven Phillips,NF,,,Disagree,1:43,"EN PC me ha costado menos, por que conozco un poco las herramientas de visualizacion","EN VR, por que ya conocía las preguntas y sabia mas o menos donde mirar",VR como positivo es que estas mas concentrado por que solo ves las graficas pero algunas no se ven bien. EN PC lo mejor es que sabes como usarlo y el training es mas sencillo pero no tienes tanto espacio y te distraes más facilmente,Disagree,Pondría ISsues y Pull reuqest en un mismo dashboard y mexclaría algunas gráficas para evitar que haya demasiadas,
29/06/2022,01/07/2022,13,1st SC Chaoss,28,Male,PhD Student,Advanec,Advanced,4-6,4-6,NO,-,Knowledgeable,Beginner,Unkown,Bitergia,Misouri,417,186,110,Disagree,1:56,"37c, 15o",2022-04-05,"203c , 34o",2022-05-03,Disagree,2:03,Valerio Cosentino,Sean Patrick Goggins,Alberto Pérez García-Plaza,216.317,117.703,385.4,Agree,3:33,chaoss/augur,chaoss/grimoirelab-perceval,chaoss/grimoirelab-elk,chaoss/augur,chaoss/grimoirelab-sortinghat,-chaoss/grimoirelab,Don't Know,2:42,k----n,Siwen,Sean Patrick gogins,NF Sean 37,,,Disagree,3:44,-,-,-,-,-,-
29/06/2022,01/07/2022,13,2nd VR Openshift,-,-,-,-,-,-,-,-,NO,-,-,Unknown,Red Hat,Openshift,21050,32156,50,Strongly Disagree,2:02,"330, 200c",2022-04-14,"1338o, 11kc",2022-05-20,Disagree,2:39,openshift-cherrypickrobot,bot,David Eads,NF,NF,175.444,Agree,2:45,release,docs,installer,docs,okd,installer,Don't Know,2:46,Diego Santamaria,Mike Veazie,Deven Phillips,NF,,,Disagree,2:47,"EN PC, por que estamos mas acosumbrados a verlos, en VR es mas lalamtivo pero no nos acostumbrados","EN VR, por que tenia el conocimiento previo de las otras","PC: Positivo la sencillez, lo cotidiano, lo negativo que es lo cotidiano, dashboards hay muchos. VR: Positivo la novedad, poder moverte y mirar de lados y eso.",Disagree,"La sensación de cansancio ocular es mucho superior en VR, lo cual me ha cansado la vista. Acosumbtrarse al movimiento es complicado.",-
29/06/2022,01/07/2022,14,1st VR Chaoss,26,Male,Developer,Advanced,Knowledgeable,4-6,1-3,NO,-,None,Knowledgeable,Unkown,Bitergia,Misouri,417,186,110,Strongly Disagree,3:04,"37c, 15o",2022-04-05,"203c , 34o",2022-04-05,Disagree,2:47,Valerio Cosentino,Sean Patrick Goggins,Alberto Pérez García-Plaza,216.317,117.703,385.4,Don't Know,3:53,chaoss/augur,chaoss/grimoirelab-perceval,chaoss/grimoirelab-elk,chaoss/augur,chaoss/grimoirelab-sortinghat,-chaoss/grimoirelab,Don't Know,3:12,k----n,Siwen,Sean Patrick gogins,NF Sean 37,,,Disagree,2:31,-,-,-,-,-,-
29/06/2022,01/07/2022,14,2nd SC Openshift,-,-,-,-,-,-,-,-,NO,-,-,Unknown,Red Hat,Openshift,21050,32156,50,Strongly Disagree,2:45,"330, 200c",2022-04-14,"1338o, 11kc",2022-05-20,Disagree,2:08,openshift-cherrypickrobot,bot,David Eads,NF,NF,175.444,Disagree,2:43,release,docs,installer,docs,okd,installer,Disagree,3:21,Diego Santamaria,Mike Veazie,Deven Phillips,NF,,,Disagree,2:02,"EN PC, ya conocia donde mirar por las preguntas",EN PC por lo mismo que antes,"PC: Positivo que sabemos utilizarlo casi todos, pero limita mucho el numero de graficas. VR: El espacio ilimitado lo mejor, lo peor es que cansa si estas mucho tiempo",Disagree,"Aumentaría tamaños en las graficas de VR, al menos para las leyendas y los ejes",-
29/06/2022,04/07/2022,15,1st VR Openshift,35,Male,Consultant,Knowledgeable,Beginner,4-6,1-3,-,NO,None,Beginner,Unknown,Red Hat,Openshift,21050,32156,50,Agree,6:09,"330, 200c",2022-04-14,"1338o, 11kc",2022-05-20,Disagree,3:13,openshift-cherrypickrobot,bot,David Eads,NF,NF,175.444,Disagree,3:01,release,docs,installer,docs,okd,installer,Don't Know,3:32,Diego Santamaria,Mike Veazie,Deven Phillips,NF,,,Disagree,3:12,-,-,-,-,-,Le ha costado mucho al principio adaptarse a la escena
29/06/2022,04/07/2022,15,2nd SC Chaoss,-,-,-,-,-,-,-,NO,-,-,-,Unkown,Bitergia,Misouri,417,186,110,Disagree,1:45,"37c, 15o",2022-04-05,"203c , 34o",2022-04-05,Disagree,3:02,Valerio Cosentino,Sean Patrick Goggins,Alberto Pérez García-Plaza,216.317,117.703,385.4,Disagree,2:28,chaoss/augur,chaoss/grimoirelab-perceval,chaoss/grimoirelab-elk,chaoss/augur,chaoss/grimoirelab-sortinghat,-chaoss/grimoirelab,Disagree,2:34,k----n,Siwen,Sean Patrick gogins,NF Sean 37,,,Disagree,2:31,"En PC, me ha costado adaptarme al VR al principio y ademas las aplicaciones de PC son mas de uso diario",EN PC por lo de antes y que ya me sabia las preguntas,VR tiene como punto positivo el espacio y que puedes ver más rapido las cosas en giros mas cortos pero el entorno puede llegar a cansar al usuario si se expone mucho tiempo. En pantalla tienes la limitacion de la pantalla solo y el punto positivo es que casi todo el mundo sabe leer graficas,Don't Know,El movimiento en VR lo mejoraríam aun qu eno se como,-
29/06/2022,04/07/2022,16,1st SC Openshift,29,Male,Degree Student,Knowledgeable,Beginner,1-3,<1,-,NO,None,None,Unknown,Red Hat,Openshift,21050,32156,50,Don't Know,5:07,"330, 200c",2022-04-14,"1338o, 11kc",2022-05-20,Don't Know,3:45,openshift-cherrypickrobot,bot,David Eads,NF,NF,175.444,Don't Know,3:33,release,docs,installer,docs,okd,installer,Disagree,2:56,Diego Santamaria,Mike Veazie,Deven Phillips,NF,,,Disagree,3:17,-,-,-,-,-,Iba un poco lento al principio por no estar acostumbrado a Kibana
29/06/2022,04/07/2022,16,2nd VR Chaoss,-,-,-,-,-,-,-,NO,-,-,-,Unkown,Bitergia,Misouri,417,186,110,Disagree,3:32,"37c, 15o",2022-04-05,"203c , 34o",2022-04-05,Disagree,2:59,Valerio Cosentino,Sean Patrick Goggins,Alberto Pérez García-Plaza,216.317,117.703,385.4,Disagree,2:32,chaoss/augur,chaoss/grimoirelab-perceval,chaoss/grimoirelab-elk,chaoss/augur,chaoss/grimoirelab-sortinghat,-chaoss/grimoirelab,Disagree,2:23,k----n,Siwen,Sean Patrick gogins,NF Sean 37,,,Disagree,2:54,"Sin duda en PC, No habia usado VR antes y me ha costado un pcoo",Creo que en VR pero por que sabia las preguntas,"PC positivo que es mas facil y se ve mejor las letras, pero no se ven todas las graficas. VR mejor en espacio pero las letras se veian un poco mal",Don't Know,"Mejoraria las letras en VR, no se ven muy bien",-
05/07/2022,05/07/2022,17,1st SC Openshift,29,Male,Developer,Knowledgeable,Knowledgeable,2,1,-,NO,Beginner,Advanced,Unknown,Red Hat,Openshift,21k,32k,No lo veo,Strongly Disagree,2:42,"330, 200c",2022-04-08,"1300, 11kc",2022-05-14,Agree,3:53,openshift-cherrypickrobot,bot,David Eads,NF,NF,166.43,Agree,4:00,release,docs,installer,docs,okd,installer,Disagree,2:36,Diego Santamaria,Mike Veazie,Miguel Angel,NF,NF,NF,Don't Know,3:35,-,-,-,-,-,-
05/07/2022,05/07/2022,17,2nd VR Chaoss,-,-,-,-,-,-,-,NO,-,-,-,Unkown,Bitergia,Misouri,415º,187,108,Disagree,2:14,"19o, 35c",2022-06-29,"200c, 38o",2022-06-29,Agree,4:45,Valerio Cosentino,Sean Patrick Goggins,Alberto Pérez García-Plaza,217,118,386,Don't Know,3:32,chaoss/augur,chaoss/grimoirelab-perceval,chaoss/grimoirelab-elk,chaoss/augur,chaoss/grimoirelab-sortinghat,-chaoss/grimoirelab,Disagree,2:30,k----n,Sean Patrick gogins,siwen,nf,40,nf,Disagree,3:01,"EN VR, las estanterias se diferenciaba mejor, y sabia las preguntas",EN VR,"VR organizacion por estanterias mejor y el color de separacion entre issues y pullreuqest y que estuviera todo junto. EN PC, el filtro es más facil, el de tiempos. EN VR el filtro mas incomodo. EN PC algo negativo no está bien separado las fsmilias, todo muy lioso, las generales al principio no son muy claras",Disagree,-,-
05/07/2022,05/07/2022,18,1st VR Chaoss,27,Male,Consultant,Beginner,Beginner,1,1,NO,-,None,None,Unkown,Bitergia,Misouri,415,187,108,Strongly Disagree,1:25,"19o, 35c",2022-04-06,"200c, 38o",2022-05-02,Agree,6:05,Valerio Cosentino,Sean Patrick Goggins,Alberto Pérez García-Plaza,63,170,57,Disagree,2:59,chaoss/augur,chaoss/grimoirelab-elk,chaoss/grimoirelab-sortinghat,chaoss/augur,chaoss/grimoirelab-sortinghat,-chaoss/grimoirelab,Don't Know,3:04,JJMerchante,weinchi oneiwichi,Brandom,OK,OK,OK,Disagree,2:22,-,-,-,-,-,-
05/07/2022,05/07/2022,18,2nd SC Openshift,-,-,-,-,-,-,-,-,NO,-,-,Unknown,Red Hat,IBM,11k,17K,130,Disagree,2:23,"328, 195",2022-04-08,"1300, 11kc",2022-05-14,Disagree,1:41,openshift-cherrypickrobot,bot,David Eads,NF,NF,166,Disagree,2:42,release,docs,installer,docs,okd,installer,Disagree,1:28,Diego Santamaria,Mike Veazie,Miguel Angel,NF,NF,NF,Disagree,1:59,He encontrado más fácil de realizar el entorno de dashboards sobre el de realidad virtual por que estoy mas acostumbrado a tratar con este tipo de gráficos que sobre el entorno de VR,El entorno de VR me ha costado más por la falta de familiaridad con las gafas de VR,"Entorno PC: Posibilidad de utilizar ctrl+f y comandos de búsqueda. Entorno PC: Posibilidad de utilizar ctrl+f y comandos de búsqueda,
Entorno VR: Las gráficas agrupadas en estantes son más sencillas de identificar. No obstante gráficas agrupadas (issues by submitter, days, ….) son más incómodas de leer al tener que recordar la posición de la información deseada.",Disagree,-,-
05/07/2022,05/07/2022,19,1st VR Openshift,29,Male,Developer,Advanced,Beginner,4-6,1-3,-,NO,Beginner,Beginner,Unknown,Red Hat,Openshift,21k,32k,50,Disagree,3:30,"330, 200c",2022-04-08,"1300, 11kc",2022-05-14,Disagree,2:50,openshift-cherrypickrobot,bot,David Eads,NF,NF,166.43,Don't Know,3:29,release,docs,installer,docs,okd,installer,Disagree,2:47,Diego Santamaria,Mike Veazie,Miguel Angel,NF,NF,NF,Agree,3:41,-,-,-,-,-,-
05/07/2022,05/07/2022,19,2nd SC Chaoss,-,-,-,-,-,-,-,NO,-,-,-,Unkown,Bitergia,Misouri,415,187,108,Disagree,3:02,"19o, 35c",2022-04-06,"200c, 38o",2022-05-02,Disagree,2:30,Valerio Cosentino,Sean Patrick Goggins,Alberto Pérez García-Plaza,217,118,386,Disagree,2:51,chaoss/augur,chaoss/grimoirelab-perceval,chaoss/grimoirelab-elk,chaoss/augur,chaoss/grimoirelab-sortinghat,-chaoss/grimoirelab,Disagree,2:42,k----n,Sean Patrick gogins,siwen,nf,40,nf,Disagree,3:12,"En PC, me sabia las preguntas y mas o menos donde mirar",EN PC,"VR: positivo que tienes mas graficas a la vez, negativo que es dificil de adaptarse si no sabes usar las gafas VR. PC positivo que las personas lo usan a diario y negativo que se ven peor las graficas",Disagree,"Las letras en VR se ven muy pequeñas y los carteles a veces hacen un poco de lio debido al formato que tienen, yo mejoraria esa parte.",-
05/07/2022,05/07/2022,20,1st SC Chaoss,27,Male,Tester,Knowledgeable,Knowledgeable,4-6,4-6,NO,-,Beginner,None,Unkown,Bitergia,Misouri,415,187,108,Agree,3:27,"19o, 35c",2022-04-06,"200c, 38o",2022-05-02,Agree,3:45,Valerio Cosentino,Sean Patrick Goggins,Alberto Pérez García-Plaza,217,118,386,Disagree,2:21,chaoss/augur,chaoss/grimoirelab-perceval,chaoss/grimoirelab-elk,chaoss/augur,chaoss/grimoirelab-sortinghat,-chaoss/grimoirelab,Don't Know,3:02,k----n,Sean Patrick gogins,siwen,nf,40,nf,Don't Know,2:58,-,-,-,-,-,-
05/07/2022,05/07/2022,20,2nd VR Openshift,-,-,-,-,-,-,-,-,NO,-,-,Unknown,Red Hat,Openshift,21k,32k,50,Disagree,2:58,"330, 200c",2022-04-08,"1300, 11kc",2022-05-14,Disagree,3:01,openshift-cherrypickrobot,bot,David Eads,NF,NF,166.43,Disagree,2:01,release,docs,installer,docs,okd,installer,Disagree,2:27,Diego Santamaria,Mike Veazie,Miguel Angel,NF,NF,NF,Don't Know,2:45,"En PC, me ha costado menos usar el raton que el mando de VR",Creo que en VR por que sabia que graficas mirar,"VR esta bien tener las graficas alredeodr y asi tienes más y es mas facil buscar el dato, pero a veces se hace complicado verlo con el laser. PC Kibana es algo facil de entender pero un poco limitado el espacio",Don't Know,-,-
05/07/2022,05/07/2022,33,1st VR Chaoss,20,Male,Student,Knowledgeable,None,1-3,<1,NO,-,None,Beginner,Unkown,Bitergia,Misouri,21k,32k,50,Strongly Disagree,1:45,Wrong,2022-04-06,Wrong,2022-05-02,Agree,6:39,Valerio Cosentino,Sean Patrick Goggins,Alberto Pérez García-Plaza,Wrong,Wrong,Wrong,Agree,4:04,chaoss/augur,chaoss/grimoirelab-sortinghat,chaoss/grimoirelab-elk,chaoss/augur,chaoss/grimoirelab-sortinghat,-chaoss/grimoirelab,Disagree,3:30,k----n,Sean Patrick gogins,siwen,NF,NF,NF,Disagree,3:04,-,-,-,-,-,-
05/07/2022,05/07/2022,33,2nd SC Openshift,-,-,-,-,-,-,-,-,NO,-,-,Unknown,Red Hat,Openshift,21k,32k,No se ve,Strongly Disagree,2:23,Wrong,2022-04-08,Wrong,2022-05-14,Disagree,3:01,openshift-cherrypickrobot,bot,David Eads,NF,NF,166,Disagree,4:05,release,docs,installer,docs,okd,installer,Disagree,2:16,Diego Santamaria,Mike Veazie,Miguel Angel,NF,NF,NF,Agree,3:49,"EN PC, superacosymbrado a pantalla","En PC, mas sencillo  y sabia las preguntas","en VR usar gafas con gafas es incomodo y hay que ajustarlas mucho y no das vueltas, mover el raton es menos esfuerzo. VR muy interactivo, sientes que etsas en contacto con los datos, mucho mss que en pantalla. EN PC es mas aburrido, solo puedes modificarlo o borrarlo, no tocarlo, pero es mas sencillo. pantalla se vuelbe lento cambiar de pestañas.",Disagree,"Hay que optimizar las gafas para que carguien los datos, hay segundos que bajan los fps","Se equivocó con la fecha en la ultima tarea, de ahi debido al tiempo"
05/07/2022,05/07/2022,34,1st SC Openshift,21,Female,Student,Knowledgeable,Beginner,4-6,<1,-,NO,Beginner,Knowledgeable,Unknown,Red Hat,Openshift,WRONG,WRONG,WRONG,Strongly Disagree,2:34,"330, 200c",2022-04-06,"1300, 11kc",WRONG,Disagree,3:33,openshift-cherrypickrobot,bot,David Eads,NF,NF,166,Agree,6:12,Wrong,Wrong,Wrong,Wrong,Wrong,Wrong,Agree,4:10,Diego Santamaria,Mike Veazie,Miguel Angel,NF,NF,NF,Agree,5:10,-,-,-,-,-,Mucho lio viendo las graficas
05/07/2022,05/07/2022,34,2nd VR Chaoss,-,-,-,-,-,-,-,NO,-,-,-,WRONG,WRONG,WRONG,OK,OK,OK,Disagree,3:25,"19o, 35c",2022-04-06,"200c, 38o",2022-05-02,Disagree,2:22,Valerio Cosentino,Sean Patrick Goggins,Alberto Pérez García-Plaza,217,118,386,Disagree,3:32,Wrong,Wrong,Wrong,chaoss/augur,chaoss/grimoirelab-sortinghat,-chaoss/grimoirelab,Disagree,3:59,k----n,Sean Patrick gogins,siwen,NF,40,NF,Disagree,2:50,"EN PC, los controles son mas exactos, la visualizacion en VR no se ve miuy bien los datos","EN VR, ya me sabias las preguntas","VR los datos mas cerca y visual, en PC es muy conocido por todo el mundo. PC es muy estatico como negativo y en VR que te puedes perder en el entorno.",Don't Know,-,-
05/07/2022,05/07/2022,31,1st SC Chaoss,25,Female,Student,Knowledgeable,None,4,<1,NO,-,None,None,Unkown,Bitergia,Misouri,WRONG,WRONG,WRONG,Disagree,1:25,"19o, 35c",2022-04-06,"200c, 38o",2022-05-02,Agree,2:34,Valerio Cosentino,Sean Patrick Goggins,Alberto Pérez García-Plaza,Wrong,Wrong,Wrong,Agree,3:18,chaoss/augur,chaoss/grimoirelab-perceval,chaoss/grimoirelab-elk,chaoss/augur,chaoss/grimoirelab-sortinghat,-chaoss/grimoirelab,Disagree,2:45,k----n,Sean Patrick gogins,siwen,NF,40,NF,Agree,3:15,-,-,-,-,-,-
05/07/2022,05/07/2022,31,2nd VR Openshift,-,-,-,-,-,-,-,-,-,-,-,Unknown,Red Hat,Openshift,21k,32k,50,Disagree,1:10,"330, 200c",2022-04-08,"1300, 11kc",2022-05-14,Disagree,2:30,openshift-cherrypickrobot,bot,David Eads,Wrong,Wrong,Wrong,Agree,2:00,release,docs,installer,docs,okd,installer,Don't Know,2:12,Diego Santamaria,Mike Veazie,Miguel Angel,NF,NF,NF,Agree,2:12,"En PC, en VR es mas dificl darle a las cosas y me marea",En VR,PC es mas facil d eencontrar y en VR no sabria decir,Disagree,-,-
05/07/2022,05/07/2022,32,1st VR Openshift,22,Male,Student,Advanced,Beginner,4.6,<1,NO,-,Beginner,None,Unknown,Red Hat,Openshift,WRONG,WRONG,WRONG,Don't Know,5:40,"330, 200c",2022-04-08,"1300, 11kc",2022-05-14,Agree,3:25,openshift-cherrypickrobot,bot,David Eads,NF,NF,166,Don't Know,4:18,Wrong,Wrong,Wrong,docs,okd,installer,Don't Know,3:35,Diego Santamaria,Mike Veazie,Miguel Angel,NF,NF,NF,Agree,3:50,-,-,-,-,-,-
05/07/2022,05/07/2022,32,2nd SC Chaoss,-,-,-,-,-,-,-,-,NO,-,-,Unkown,Bitergia,Misouri,415,186,108,Strongly Disagree,1:20,"19o, 35c",Wrong,"200c, 38o",Wrong,Agree,2:32,Valerio Cosentino,Sean Patrick Goggins,Alberto Pérez García-Plaza,Wrong,Wrong,Wrong,Agree,3:12,chaoss/augur,chaoss/grimoirelab-perceval,chaoss/grimoirelab-elk,chaoss/augur,chaoss/grimoirelab-sortinghat,-chaoss/grimoirelab,Don't Know,3:50,k----n,siwen,Sean Patrick gogins,NF,NF,40,Agree,2:52,"Pantalla, un poco mas claro, tenerlo de frente ayuda.",Pantalla,PC epositivo lo tienes de frente. VR salta  a la vista las graficas. VR que tienes que dar vueltas. PC negativo que cambias de pestaña,Disagree,-,Mucho lio con las fechas y con las personas en ambos entornos
05/07/2022,06/07/2022,21,1st VR Chaoss,23,Male,Student/Researcher,Advanced,Knowledgeable,7-10,4-6,NO,-,Knowledgeable,Beginner,Unkown,Bitergia,Misouri,415,186,108,Strongly Disagree,1:55,"19o, 35c",2022-04-06,"200c, 38o",2022-05-02,Agree,4:58,Valerio Cosentino,Sean Patrick Goggins,Alberto Pérez García-Plaza,217,118,386,Don't Know,4:12,chaoss/augur,chaoss/grimoirelab-perceval,chaoss/grimoirelab-elk,chaoss/augur,chaoss/grimoirelab-sortinghat,-chaoss/grimoirelab,Disagree,2:54,k----n,siwen,Sean Patrick gogins,NF,NF,40,Disagree,3:45,-,-,-,-,-,-
05/07/2022,06/07/2022,21,2nd SC Openshift,-,-,-,-,-,-,-,-,NO,-,-,Unknown,Red Hat,Openshift,21k,32k,No se ve,Disagree,2:22,"330, 200c",2022-04-07,"1300, 11kc",2022-05-14,Disagree,3:02,openshift-cherrypickrobot,bot,David Eads,NF,NF,166,Disagree,2:22,docs,release,console,docs,okd,installer,Disagree,1:29,Diego Santamaria,Mike Veazie,Miguel Angel,NF,NF,NF,Disagree,2:20,"En el ambiente VR. Las gráficas se encontraban más esparcidas y no te daba la sensación de aglomeración de datos, el hecho de tener que cambiar de pestaña y modificar dos veces los filtros ralentiza el proceso, que los colores sean distintos en cada gráfica puede hacer que te despistes o no asocies correctamente la pestaña de ISSUES o PULL REQUEST obligándote a tener que mirar el título de la pestaña del navegador (el escoger una distribución de colores fija para las PR y los ISSUES puede ayudar a agilizar el proceso en navegador al igual que lo hace en VR). Apuntar algunas cosas negativas del entorno VR: a veces la longitud del texto era superior al recuadro blanco que tenían de fondo y no se apreciaba bien lo que ponía, y la selección de barras con los mandos para previsualizar el texto de los datos no era suficientemente precisa para que sea cómodo trabajar.","Seguramente en el entorno VR, igual por ser el primer entorno probado, tiempo de renderizado, perspectiva para leer datos/preguntas y no conocer del todo bien la metodología y no contar con el buscador de texto del navegador web.","El entorno de navegador, posiblemente por la experiencia conseguida previamente en el otro entorno.
-Ventajas navegador web: búsqueda de texto, mejor visualización de texto de los datos de las gráficas, no hay necesidad de control de posición
-Desventajas navegador web: no hay color predefinido para PR/ISSUES que los diferencien y te obligan a leer el título de la tab, aglomeración de gráficas, necesidad de modificar dos veces los filtros.
-Ventajas VR: colores que fijos que definen las gráficas de PR/ISSUES y permite diferenciarlas fácilmente, Gráficas separadas por estantes y sensación de más organización, filtros se aplican una sola vez para PR e ISSUES.
-Desventajas VR: dificultad en la selección de datos con los mandos, perspectiva a la hora de visualizar los carteles y las preguntas, mayor cansancio visual, necesidad de experiencia en el manejo de los mandos, tiempo de renderizado.
",Strongly Disagree,Revisar el tamaño de los carteles en el entorno VR para que abarque toda la longitud del texto.,-
05/07/2022,06/07/2022,22,1st SC Openshift,41,Male,PhD Student,Knowledgeable,Knowledgeable,10+,4-6,-,NO,Beginner,None,Unknown,Red Hat,Openshift,21k,32k,No se ve,Agree,7:08,"330, 200c",Wrong,"1300, 11kc",Wrong,Disagree,4:20,openshift-cherrypickrobot,bot,David Eads,NF,NF,166,Don't Know,4:57,release,docs,installer,docs,okd,installer,Don't Know,4:13,Wrong,Wrong,Wrong,NF,NF,NF,Don't Know,4:04,-,-,-,-,-,"Mucho lio con el inglés, de ahi a que tardara tanto"
05/07/2022,06/07/2022,22,2nd VR Chaoss,-,-,-,-,-,-,-,Knowledgeable,-,-,-,Unkown,Bitergia,Misouri,415,186,108,Disagree,2:30,"19o, 35c",2022-04-06,"200c, 38o",2022-05-02,Disagree,2:09,Valerio Cosentino,Sean Patrick Goggins,Alberto Pérez García-Plaza,Wrong,Wrong,Wrong,Disagree,5:01,chaoss/augur,chaoss/grimoirelab-perceval,chaoss/grimoirelab-elk,chaoss/augur,chaoss/grimoirelab-sortinghat,-chaoss/grimoirelab,Disagree,2:43,Wrong,Wrong,Wrong,Wrong,Wrong,Wrong,Don't Know,3:45,"En el entorno VR, Es más interactivo y se puede manipular","EN PC. Se encuentra todo muy sobrecargado, adicional se tenía que mover de una web a otra y para conocer las preguntas solicitas.","En el entorno web:  la selección por tiempos . Desventajas:  
Entorno Web: Sobrecarga de información, menos colorido, se tarda más tiempo en responder la información requerida
VR: Si no se tiene destreza en el uso de VR dificulta manipular.
VR: Interactivo, opción de apuntar, colorido, muy llamativo e intuitivo. El tiempo de respuesta más rápido.",Strongly Disagree,-,"En VR:

las etiquetas serian conveniente  visualizar sobre las barras para poder leer mejor, aparecen entre las  barras.

En Web: posiblemente juntar Issues y Pull Request, para tener mejores tiempos de respuestas. "
07/07/2022,07/07/2022,23,1st VR Chaoss,27,Male,Developer,Advanced,Knowledgeable,10,5,NO,-,None,None,Unkown,Bitergia,Misouri,415,186,108,Strongly Disagree,1:45,"19o, 35c",2022-05-08,"200c, 38o",2022-05-02,Disagree,3:01,Valerio Cosentino,Sean Patrick Goggins,Alberto Pérez García-Plaza,217,118,386,Agree,4:32,chaoss/augur,chaoss/grimoirelab-perceval,chaoss/grimoirelab-elk,chaoss/augur,chaoss/grimoirelab-sortinghat,-chaoss/grimoirelab,Don't Know,3:42,k----n,siwen,Sean Patrick gogins,NF,NF,44,Don't Know,2:31,-,-,-,-,-,-
07/07/2022,07/07/2022,23,2nd SC Openshift,-,-,-,-,-,-,-,-,NO,-,-,Unknown,Red Hat,Openshift,21k,32k,No se ve,Strongly Disagree,1:16,"330, 200c",2022-04-08,"1482, 11kc",2022-05-14,Strongly Disagree,1:39,openshift-cherrypickrobot,bot,David Eads,NF,NF,166,Disagree,2:15,release,docs,installer,docs,okd,installer,Agree,2:39,Diego Santamaria,Mike Veazie,Miguel Angel,NF,NF,NF,Disagree,2:02,"PC, Since it was my second time i already knew what each graph correspond to","VR, because i needed to move around and turn my neck to find everything.","PC: 
PROS: I’m used to move around in the PC.
CONS: Graphs in different pages and too many
VR:
PROS: Having everything together and well sorted
CONS: The menu page in the middle, the data labels sometimes hide behind the graphs.
",Strongly Disagree,NO,-
07/07/2022,07/07/2022,24,1st SC Openshift,27,Male,Front End Lead,Expert,Knowledgeable,7-10,1,-,NO,Knowledgeable,Advanced,Unknown,Red Hat,Openshift,21k,32k,No se ve,Agree,2:34,"330, 200c",2022-04-08,"1482, 11kc",2022-05-14,Disagree,3:39,openshift-cherrypickrobot,bot,David Eads,NF,NF,166,Disagree,2:40,release,docs,installer,docs,okd,installer,Agree,3:56,Diego Santamaria,Mike Veazie,Miguel Angel,NF,NF,NF,Disagree,2:40,-,-,-,-,-,-
07/07/2022,07/07/2022,24,2nd VR Chaoss,-,-,-,-,-,-,-,NO,-,-,-,Unkown,Bitergia,Misouri,415,186,108,Disagree,1:15,"19o, 35c",2022-05-08,"200c, 38o",2022-05-02,Don't Know,1:58,Valerio Cosentino,Sean Patrick Goggins,Alberto Pérez García-Plaza,217,118,386,Disagree,2:31,chaoss/augur,chaoss/grimoirelab-perceval,chaoss/grimoirelab-elk,chaoss/augur,chaoss/grimoirelab-sortinghat,-chaoss/grimoirelab,Disagree,1:36,k----n,siwen,Sean Patrick gogins,NF,NF,44,Disagree,1:30,"En PC, por que estoy acostumbraod a ver las graficas ahi, en VR los fps hacebn mucho","Por que eN PC, por que no sabia donde buscar al principio.","Ventajas: VR que lo tienes todo, las rstanterias es clave, tener todo muy separado por categorias es la clave, quieres submitters te vas a los estantes de submitter. EN PC es mas comodo interactuar, la velocidad es mas rapida.- Desventaja: VR los fps son una lastima, lo peor. EN PChay demasiadas graficas y las preguntas son para un par, y marean tanta información de golpe.",Disagree,-,-
07/07/2022,08/07/2022,25,1st SC Openshift,29,Male,Phd Student,Advanced,Knowledgeable,7-10,1-3,-,NO,None,Knowledgeable,Unknown,Red Hat,Openshift,21k,32k,No se ve,Strongly Disagree,1:28,"330, 200c",2022-04-14,"1482, 11kc",2022-05-14,Disagree,2:08,openshift-cherrypickrobot,bot,David Eads,NF,NF,310,Agree,4:14,docs,release,console,docs,okd,installer,Don't Know,2:18,Diego Santamaria,Mike Veazie,Miguel Angel,NF,NF,NF,Don't Know,3:05,-,-,-,-,-,-
07/07/2022,08/07/2022,25,2nd VR Chaoss,-,-,-,-,-,-,-,NO,-,-,-,Unkown,Bitergia,Misouri,411,189,112,Disagree,2:10,"19o, 35c",Wrong,"200c, 38o",Wrong,Don't Know,2:02,Valerio Cosentino,Sean Patrick Goggins,Alberto Pérez García-Plaza,217,118,386,Don't Know,3:06,chaoss/augur,chaoss/grimoirelab-perceval,chaoss/grimoirelab-elk,chaoss/augur,chaoss/grimoirelab-sortinghat,-chaoss/grimoirelab,Strongly Agree,3:40,k---n,siwen,Sean Patrick gogins,NF,NF,44,Disagree,2:27,"Entender el contenido que mostraba cada tabla me ha resultado más complicado en el entorno de VR. Sin embargo, sabiendo que tabla había que mirar el entorno de VR también era más intuitivo sobre todo al comparar mezclar datos de issues y pull request.","VR, porque me ha costado más entender el contenido que mostraba cada una de las tablas. Una vez que la tabla estaba localizada era más sencillo terminar la tarea en VR.","En ordenador: resulta muy útil que cada gráfica tiene su título encima, esto facilita la localización de las mismas. Sin embargo, es más problemático tener que cambiar el filtro del intervalo temporal en issues y en pull requests (es fácil que se olvide hacerlo en alguno de los dos), y también es más complicado tener que cambiar de pestañas.
El VR: resulta muy útil tener la información de pull requests y de issues en la misma ubicación y que el intervalo temporal seleccionado aplique a las dos. Por el contrario, que una línea de texto incluya el título de varias gráficas hace que sea más complicado encontrarlas, cuando los nombres de cada columna están escritos en la “estantería” son muy pequeños y cuesta leerlos.","Si tuviese que elegir diría “Agree”, pero la dificultad del experimento viene por no estar tan familiarizado con las herramientas de visualización de los datos de un repositorio. Esto hace que cueste un poco entender que información se está buscando y por lo tanto se tarde más en encontrarla. Dejando esto de lado, las actividades en si mismas eran sencillas y claras.","• En general sería bueno hacer las gráficas algo más grandes (algunas tienen un buen tamaño pero otras son muy pequeñas).
    • Parece que la función de apuntar a las columnas de las gráficas con el mando no funciona del todo bien. Cuesta seleccionar una columna concreta (y el texto que aparece a veces se sobrepone con la gráfica o se sale del cuadrado blanco).
    • Habría que poner algo más grandes los nombres de las columnas escritos en las estanterías. Además, en algunos casos el color se confunde un poco con el tono madera. Igual un color neutro como el negro sería mejor.
",
07/07/2022,08/07/2022,26,1st VR Chaoss,27,Male,PhD Student,Advanced,Knowledgeable,7-10,1-3,NO,-,None,None,Unkown,Bitergia,Misouri,415,186,108,Disagree,1:50,"19o, 35c",2022-05-08,"200c, 38o",2022-05-02,Disagree,2:08,Valerio Cosentino,Sean Patrick Goggins,Alberto Pérez García-Plaza,217,118,387.3,Agree,3:18,wrong,wrong,wrong,chaoss/augur,chaoss/grimoirelab-sortinghat,-chaoss/grimoirelab,Don't Know,3:02,k---n,siwen,Sean Patrick gogins,nf,NF,44,Don't Know,3:14,-,-,-,-,-,-
07/07/2022,08/07/2022,26,2nd SC Openshift,-,-,-,-,-,-,-,-,NO,-,-,Unknown,Red Hat,Openshift,21k,32k,No se ve,Disagree,1:48,"330, 200c",2022-04-14,"1482, 11kc",2022-05-14,Disagree,1:30,openshift-cherrypickrobot,bot,David Eads,Wrong,NF,168,Don't Know,2:11,docs,release,console,docs,okd,installer,Disagree,2:05,Diego Santamaria,Mike Veazie,Miguel Angel,NF,NF,NF,Don't Know,3:14,Ha sido más fácil responder a las preguntas en el portatil pero porq ya tenía algo de idea de dónde tenia que buscar las respuestas.,"Más que en ""which enviroment"" yo diría que dependía de la tarea (en algunas tareas tadaba más y en otras menos pero no dependía del enviroment). Es verdad que en el VR tenia toda la info a mi alcance (bastante cerca y fácil de localizar) mientras que en el portatil me tenía que mover entre 2 pestañas y además arriba y abajo para localizar las gráficas.","Lo de que estén organizadas por estanterías en el VR facilita el trabajo a la hora de buscar. En el portatil el inconveniente es el que menciono en la pregunta anterior, que hay que moverse entre varias pestañas y arriba y abajo (pero es verdad que por lo menos con el portatil estoy más acostumbrado a trabajar que con las VR).","El experimento ha tenido para mi una dificultad en general media tirando a fácil. Una vez que sabes lo que se representa en cada gráfica es simplemente mirar valores. Lo más dificil es eso, saber qué te están preguntando y entender lo que se representa en cada gráfica.","En el portatil --> las gráficas me han parecido bastante pequeñas, es difícil de leer el texto que aparece en las gráficas. En el VR: me gustó como estaban ordenadas las gráficas (no se si en el portátil seguían algún orden, pero en el VR estaban mejor ordenadas/clasificadas). Para el nombre de los ejes en las gráficas del VR sí que los pondría debajo de cada gráfica. Me refiero a que en una estantería tenías una frase con 4 palabras separadas por comas  y cada palabra hacía referencia a una gráfica. Yo creo que quedaría más claro (más fácil de localizar) si justo debajo de cada gráfica va la palabra/frase correspondiente a lo que representa esa gráfica.
 Y luego el tema de los FPS entiendo que es algo que es más complicado de controlar
Otra cosa que a lo mejor puede molar es poder pinchar en una gráfica para que se amplie y puedas verla mejor",
07/07/2022,07/07/2022,27,1st VR Openshift,27,Male,Developer,Expert,Knowledgeable,7-10,4-6,-,NO,Beginner,Beginner,Unknown,Red Hat,Openshift,21k,32k,50,Disagree,2:50,"330, 200c",2022-04-08,"1300, 11kc",2022-05-14,Disagree,3:25,openshift-cherrypickrobot,bot,David Eads,NF,NF,166,Disagree,3:23,release,docs,installer,docs,okd,installer,Disagree,3:45,Diego Santamaria,Mike Veazie,Miguel Angel,NF,NF,NF,Disagree,3:21,-,-,-,-,-,-
07/07/2022,07/07/2022,27,2nd SC Chaoss,-,-,-,-,-,-,-,NO,-,-,-,Unkown,Bitergia,Misouri,415,186,108,Disagree,2:01,"19o, 35c",2022-04-14,"200c, 38o",2022-05-14,Disagree,1:50,Valerio Cosentino,Sean Patrick Goggins,Alberto Pérez García-Plaza,217,118,387.3,Disagree,2:50,chaoss/augur,chaoss/grimoirelab-perceval,chaoss/grimoirelab-elk,chaoss/augur,chaoss/grimoirelab-sortinghat,-chaoss/grimoirelab,Disagree,2:48,k----n,siwen,Sean Patrick gogins,NF,NF,40,Disagree,2:49,"EN PC, Estoy mas acosumbrado",EN PC por qu eestoy mas acostumbrado y sabia mas o menos donde mirar,"VR: Mucho mejor la información indexada en las columnas, pero dificil de ver algunos datos. PC: mas facil de usar pero mas complicado de moverse entre dashboards",Disagree,-,-
07/07/2022,07/07/2022,28,1st SC Chaoss,27,Male,System architect,Knowledgeable,Advanced,1-3,4-6,NO,-,Beginner,Knowledgeable,Unkown,Bitergia,Misouri,415,187,108,Strongly Disagree,2:45,"19o, 35c",2022-04-06,"200c, 38o",2022-05-02,Disagree,3:47,Valerio Cosentino,Sean Patrick Goggins,Alberto Pérez García-Plaza,217,118,386,Disagree,2:29,chaoss/augur,chaoss/grimoirelab-perceval,chaoss/grimoirelab-elk,chaoss/augur,chaoss/grimoirelab-sortinghat,-chaoss/grimoirelab,Don't Know,3:01,k----n,Sean Patrick gogins,siwen,nf,40,nf,Don't Know,4:30,-,-,-,-,-,-
07/07/2022,07/07/2022,28,2nd VR Openshift,-,-,-,-,-,-,-,-,NO,-,-,Unknown,Red Hat,Openshift,21k,32k,50,Strongly Disagree,1:25,"330, 200c",2022-04-08,"1300, 11kc",2022-05-14,Strongly Disagree,2:20,openshift-cherrypickrobot,bot,David Eads,NF,NF,166.43,Strongly Disagree,2:20,release,docs,installer,docs,okd,installer,Strongly Disagree,2:42,Diego Santamaria,Mike Veazie,Miguel Angel,NF,NF,NF,Disagree,2:01,"EN VR, tenia mejor la información puesta en mas graficas a la vez y con lo stitulos mas grandes","EN VR, lo he visto mas sencillo y además tenia las preguntas conocidas","EN PC: tsabes como usarlo mas rapidamente pero hay demasiada información y tienes que usar dos dashboards, lo que hace que vayas mas lento. EN VR es mejor por que tienes los graficos mejor puestos y la información se ve mas rapido solo moviendote, lo unico malo es que la interfaz es un poco lenta y algunos textos no se ven bien",Strongly Disagree,"Yo mejoraria los fps de VR y los textos, es verdad que es muy interesante y tiene mucho futuro pero sin duda hay que trabajar en la interfaz.",-.
,,,,,,,,,,,,,,,,,,,,,,,,,,,,,,,,,,,,,,,,,,,,,,,,,,,,,,,,,,
,,,,,,,,,,,,,,,,,,,,,,,,,,,,,,,,,,,,,,,,,,,,,,,,,,,,,,,,,,
,,,,,,,,,,,,,,,,,,,,,,,,,,,,,,,,,,,,,,,,,,,,,,,,,,,,,,,,,,
,,,,,,,,,,,,,,,,,,,,,,,,,,,,,,,,,,,,,,,,,,,,,,,,,,,,,,,,,,
,,,,,,Nº 1st  VR Chaoss,8,,,,,,,,,,,,,,,,,,,,,,,,,,,,,,,,,,,,,,,,,,,,,,,,,,,
,,,,,,Nº 1st VR OP,8,,,,,,,,,,,,,,,,,,,,,,,,,,,,,,,,,,,,,,,,,,,,,,,,,,,
,,,,,,Nº 1st  SC Chaoss,8,,,,,,,,,,,,,,,,,,,,,,,,,,,,,,,,,,,,,,,,,,,,,,,,,,,
,,,,,,Nº 1st SC OP,8,,,,,,,,,,,,,,,,,,,,,,,,,,,,,,,,,,,,,,,,,,,,,,,,,,,
,,,,,,Nº 2nd  VR Chaoss,8,,,,,,,,,,,,,,,,,,,,,,,,,,,,,,,,,,,,,,,,,,,,,,,,,,,
,,,,,,Nº 2nd VR OP,8,,,,,,,,,,,,,,,,,,,,,,,,,,,,,,,,,,,,,,,,,,,,,,,,,,,
,,,,,,Nº 2nd  SC Chaoss,8,,,,,,,,,,,,,,,,,,,,,,,,,,,,,,,,,,,,,,,,,,,,,,,,,,,
,,,,,,Nº 2ns SC OP,8,,,,,,,,,,,,,,,,,,,,,,,,,,,,,,,,,,,,,,,,,,,,,,,,,,,