ID,PART,PART_ID,P1T1,P1T2,P1T3,P1T4,P1T5,P2T1,P2T2,P2T3,P2T4,P2T5,TOTAL_P1,TOTAL_P2,TOTAL
2,1st SC Chaoss,1,01:51,07:13,02:56,05:35,04:01,02:01,02:50,03:15,04:05,02:41,21:36,14:52,36:28
6,1st SC Chaoss,1,03:06,04:32,02:51,03:05,04:21,02:01,02:59,02:01,02:31,02:51,17:55,12:23,30:18
10,1st SC Chaoss,1,01:59,02:34,01:32,02:16,03:43,03:12,02:20,02:23,02:10,03:12,12:04,13:17,25:21
12,1st SC Chaoss,1,02:30,03:20,02:43,02:49,02:18,02:10,02:12,02:09,01:49,01:43,13:40,10:03,23:43
13,1st SC Chaoss,1,01:56,02:03,03:33,02:42,03:44,02:02,02:39,02:45,02:46,02:47,13:58,12:59,26:57
20,1st SC Chaoss,1,03:27,03:45,02:21,03:02,02:58,02:58,03:01,02:01,02:27,02:45,15:33,13:12,28:45
31,1st SC Chaoss,1,01:25,02:34,03:18,02:45,03:15,01:10,02:30,02:00,02:12,02:12,13:17,10:04,23:21
28,1st SC Chaoss,1,02:45,03:47,02:29,03:01,04:30,01:25,02:20,02:20,02:42,02:01,16:32,10:48,27:20
4,1st SC Openshift,2,03:39,06:10,05:50,02:31,02:30,02:06,02:05,04:48,04:30,03:25,20:40,16:54,37:34
8,1st SC Openshift,2,01:32,02:23,02:33,02:53,04:28,02:48,04:18,02:37,02:16,02:12,13:49,14:11,28:00
16,1st SC Openshift,2,05:07,03:45,03:33,02:56,03:17,03:32,02:59,02:32,02:23,02:54,18:38,14:20,32:58
17,1st SC Openshift,2,02:42,03:53,04:00,02:36,03:35,02:14,04:45,03:32,02:30,03:01,16:46,16:02,32:48
34,1st SC Openshift,2,02:34,03:33,06:12,04:10,05:10,03:25,02:22,03:32,03:59,02:50,21:39,16:08,37:47
22,1st SC Openshift,2,07:08,04:20,04:57,04:13,04:04,02:30,02:09,05:01,02:43,03:45,24:42,16:08,40:50
24,1st SC Openshift,2,02:34,03:39,02:40,03:56,02:40,01:15,01:58,02:31,01:36,01:30,15:29,08:50,24:19
25,1st SC Openshift,2,01:28,02:08,04:14,02:18,03:05,02:10,02:02,03:06,03:40,02:27,13:13,13:25,26:38
1,1st VR Chaoss,3,03:01,05:01,04:01,03:40,03:09,02:03,02:43,04:03,02:41,03:07,18:52,14:37,33:29
7,1st VR Chaoss,3,02:42,07:47,03:34,03:35,02:52,02:38,04:51,04:32,03:45,02:32,20:30,18:18,38:48
14,1st VR Chaoss,3,03:04,02:47,03:53,03:12,02:31,02:45,02:08,02:43,03:21,02:02,15:27,12:59,28:26
18,1st VR Chaoss,3,01:25,06:05,02:59,03:04,02:22,02:23,01:41,02:42,01:28,01:59,15:55,10:13,26:08
33,1st VR Chaoss,3,01:45,06:39,04:04,03:30,03:04,02:23,03:01,04:05,02:16,03:49,19:02,15:34,34:36
21,1st VR Chaoss,3,01:55,04:58,04:12,02:54,03:45,02:22,03:02,02:22,01:29,02:20,17:44,11:35,29:19
23,1st VR Chaoss,3,01:45,03:01,04:32,03:42,02:31,01:16,01:39,02:15,02:39,02:02,15:31,09:51,25:22
26,1st VR Chaoss,3,01:50,02:08,03:18,03:02,03:14,01:48,01:30,02:11,02:05,03:14,13:32,10:48,24:20
3,1st VR Openshift,4,02:33,03:54,03:26,03:20,03:11,01:12,03:44,01:57,02:18,02:23,16:24,11:34,27:58
5,1st VR Openshift,4,03:03,05:10,04:01,04:12,03:21,02:48,02:38,02:12,02:54,02:43,19:47,13:15,33:02
9,1st VR Openshift,4,05:02,05:16,03:10,03:45,04:10,03:10,02:54,01:54,02:15,04:21,21:23,14:34,35:57
11,1st VR Openshift,4,02:33,03:40,03:01,03:20,03:21,01:12,03:12,01:59,02:18,02:40,15:55,11:21,27:16
15,1st VR Openshift,4,06:09,03:13,03:01,03:32,03:12,01:45,03:02,02:28,02:34,02:31,19:07,12:20,31:27
19,1st VR Openshift,4,03:30,02:50,03:29,02:47,03:41,03:02,02:30,02:51,02:42,03:12,16:17,14:17,30:34
32,1st VR Openshift,4,05:40,03:25,04:18,03:35,03:50,01:20,02:32,03:12,03:50,02:52,20:48,13:46,34:34
27,1st VR Openshift,4,02:50,03:25,03:23,03:45,03:21,02:01,01:50,02:50,02:48,02:49,16:44,12:18,29:02